%!PS-Adobe-3.0
%%BoundingBox: 54 72 774 648
%%Title: Graphics produced by IDL
%%For: christoq@surprise.astro.lsa.umich.edu, 
%%      /nfs/Christoq2/christoq/research4_new/caustics/tng300
%%Creator: IDL 8.7.2 (linux x86_64 m64)
%%CreationDate: Fri Feb 14 11:12:27 2020
%%DocumentData: Clean7bit
%%Requirements: color
%%LanguageLevel: 1
%%PageOrder: Ascend
%%Pages: (atend)
%%DocumentNeededResources: (atend)
%%EndComments
%%BeginProlog
save
%+ prolog.ps -- Prolog for IDL generated PostScript files
%+ Copyright (c) Harris Geospatial Solutions, Inc. All Rights Reserved.
%v 5
/$IDL_DICT 40 dict def $IDL_DICT begin /bdef { bind def } bind def /C
{currentpoint newpath moveto} bdef /CP {currentpoint} bdef /D {currentpoint
stroke moveto} bdef /F {closepath fill} bdef /K { setgray } bdef /M {moveto}
bdef /N {rmoveto} bdef /P {lineto} bdef /R {rlineto} bdef /S {gsave show
grestore} bdef /X {currentpoint pop} bdef /Z {gsave currentpoint lineto 20
setlinewidth 1 setlinecap stroke grestore} bdef /L0 {[] 0 setdash} bdef /L1
{[40 100] 0 setdash} bdef /L2 {[200 200] 0 setdash} bdef /L3 {[200 100 50
100] 0 setdash} bdef /L4 {[300 100 50 100 50 100 50 100] 0 setdash} bdef /L5
{[400 200] 0 setdash} bdef /STDFONT { findfont exch scalefont setfont } bdef
/ISOFONT { findfont dup length dict begin { 1 index /FID ne {def} {pop pop}
ifelse } forall /Encoding ISOLatin1Encoding def currentdict end /idltmpfont
exch definefont exch scalefont setfont } bdef /ISOBULLET { gsave /Helvetica
findfont exch scalefont setfont (\267) show currentpoint grestore moveto}
bdef /MITERLIMIT { 2.5 setmiterlimit } bdef end
%%EndProlog
%%Page: 0 1
%%PageRequirements: color
%%PageResources: (atend)
%%PageOrientation: Portrait
%%PageBoundingBox: 54 72 774 648
%%BeginPageSetup
save
$IDL_DICT begin 54 72 translate 0.0283465 dup scale MITERLIMIT
%%IncludeResource: font Times-Roman
423.333 /Times-Roman ISOFONT
%%EndPageSetup
0.000 0.000 0.000 setrgbcolor gsave 15031 18842 translate 0 0 M
3.75 dup scale -635 0 N
(Einasto) show grestore 50 setlinewidth L0 6660 4224 M 16742 0 R D
9625 4224 M 0 280 R D gsave 9625 2640 translate 0 0 M 3 dup scale
-105.833 0 N
(1) show grestore 13113 4224 M 0 280 R D gsave 13113 2640 translate 0 0 M
3 dup scale -105.833 0 N
(2) show grestore 16601 4224 M 0 280 R D gsave 16601 2640 translate 0 0 M
3 dup scale -105.833 0 N
(3) show grestore 20089 4224 M 0 280 R D gsave 20089 2640 translate 0 0 M
3 dup scale -105.833 0 N
(4) show grestore 6835 4224 M 0 140 R D 7183 4224 M 0 140 R D 7532 4224 M
0 140 R D 7881 4224 M 0 140 R D 8230 4224 M 0 140 R D 8578 4224 M 0 140 R D
8927 4224 M 0 140 R D 9276 4224 M 0 140 R D 9974 4224 M 0 140 R D
10322 4224 M 0 140 R D 10671 4224 M 0 140 R D 11020 4224 M 0 140 R D
11369 4224 M 0 140 R D 11718 4224 M 0 140 R D 12066 4224 M 0 140 R D
12415 4224 M 0 140 R D 12764 4224 M 0 140 R D 13462 4224 M 0 140 R D
13810 4224 M 0 140 R D 14159 4224 M 0 140 R D 14508 4224 M 0 140 R D
14857 4224 M 0 140 R D 15206 4224 M 0 140 R D 15554 4224 M 0 140 R D
15903 4224 M 0 140 R D 16252 4224 M 0 140 R D 16949 4224 M 0 140 R D
17298 4224 M 0 140 R D 17647 4224 M 0 140 R D 17996 4224 M 0 140 R D
18345 4224 M 0 140 R D 18693 4224 M 0 140 R D 19042 4224 M 0 140 R D
19391 4224 M 0 140 R D 19740 4224 M 0 140 R D 20437 4224 M 0 140 R D
20786 4224 M 0 140 R D 21135 4224 M 0 140 R D 21484 4224 M 0 140 R D
21833 4224 M 0 140 R D 22181 4224 M 0 140 R D 22530 4224 M 0 140 R D
22879 4224 M 0 140 R D 23228 4224 M 0 140 R D
gsave 15031 1267 translate 0 0 M 3 dup scale -1163.14 0 N
(radius h) show X 181.198 M
%%IncludeResource: font Times-Roman
186.267 /Times-Roman ISOFONT
(-1) show X 0 M
%%IncludeResource: font Times-Roman
423.333 /Times-Roman ISOFONT
(Mpc) show grestore 6660 18208 M 16742 0 R D 9625 18208 M 0 -280 R D
13113 18208 M 0 -280 R D 16601 18208 M 0 -280 R D 20089 18208 M 0 -280 R D
6835 18208 M 0 -140 R D 7183 18208 M 0 -140 R D 7532 18208 M 0 -140 R D
7881 18208 M 0 -140 R D 8230 18208 M 0 -140 R D 8578 18208 M 0 -140 R D
8927 18208 M 0 -140 R D 9276 18208 M 0 -140 R D 9974 18208 M 0 -140 R D
10322 18208 M 0 -140 R D 10671 18208 M 0 -140 R D 11020 18208 M 0 -140 R D
11369 18208 M 0 -140 R D 11718 18208 M 0 -140 R D 12066 18208 M 0 -140 R D
12415 18208 M 0 -140 R D 12764 18208 M 0 -140 R D 13462 18208 M 0 -140 R D
13810 18208 M 0 -140 R D 14159 18208 M 0 -140 R D 14508 18208 M 0 -140 R D
14857 18208 M 0 -140 R D 15206 18208 M 0 -140 R D 15554 18208 M 0 -140 R D
15903 18208 M 0 -140 R D 16252 18208 M 0 -140 R D 16949 18208 M 0 -140 R D
17298 18208 M 0 -140 R D 17647 18208 M 0 -140 R D 17996 18208 M 0 -140 R D
18345 18208 M 0 -140 R D 18693 18208 M 0 -140 R D 19042 18208 M 0 -140 R D
19391 18208 M 0 -140 R D 19740 18208 M 0 -140 R D 20437 18208 M 0 -140 R D
20786 18208 M 0 -140 R D 21135 18208 M 0 -140 R D 21484 18208 M 0 -140 R D
21833 18208 M 0 -140 R D 22181 18208 M 0 -140 R D 22530 18208 M 0 -140 R D
22879 18208 M 0 -140 R D 23228 18208 M 0 -140 R D 6660 4224 M 0 13984 R D
6660 5623 M 335 0 R D gsave 6327 5200 translate 0 0 M 3 dup scale
-767.927 0 N
(-0.4) show grestore 6660 8419 M 335 0 R D gsave 6327 7997 translate 0 0 M
3 dup scale -767.927 0 N
(-0.2) show grestore 6660 11216 M 335 0 R D gsave 6327 10794 translate 0 0 M
3 dup scale -529.167 0 N
(0.0) show grestore 6660 14013 M 335 0 R D gsave 6327 13591 translate 0 0 M
3 dup scale -529.167 0 N
(0.2) show grestore 6660 16810 M 335 0 R D gsave 6327 16387 translate 0 0 M
3 dup scale -529.167 0 N
(0.4) show grestore 6660 4224 M 168 0 R D 6660 4923 M 168 0 R D 6660 6322 M
168 0 R D 6660 7021 M 168 0 R D 6660 7720 M 168 0 R D 6660 9119 M 168 0 R D
6660 9818 M 168 0 R D 6660 10517 M 168 0 R D 6660 11915 M 168 0 R D
6660 12615 M 168 0 R D 6660 13314 M 168 0 R D 6660 14712 M 168 0 R D
6660 15411 M 168 0 R D 6660 16111 M 168 0 R D 6660 17509 M 168 0 R D
6660 18208 M 168 0 R D gsave 3025 11216 translate 0 0 M 90 rotate
3 dup scale -1767.92 0 N
(\() show
%%IncludeResource: font Symbol
423.333 /Symbol STDFONT
(\326) show
%%IncludeResource: font Times-Roman
423.333 /Times-Roman ISOFONT
(2) show
%%IncludeResource: font Symbol
423.333 /Symbol STDFONT
(F) show
( ) show
%%IncludeResource: font Times-Roman
423.333 /Times-Roman ISOFONT
( - v) show X -53.3476 M
%%IncludeResource: font Times-Roman
186.267 /Times-Roman ISOFONT
( escape) show X 0 M
%%IncludeResource: font Times-Roman
423.333 /Times-Roman ISOFONT
(\)/) show
%%IncludeResource: font Symbol
423.333 /Symbol STDFONT
(\326) show
%%IncludeResource: font Times-Roman
423.333 /Times-Roman ISOFONT
(2) show
%%IncludeResource: font Symbol
423.333 /Symbol STDFONT
(F) show
%%IncludeResource: font Times-Roman
423.333 /Times-Roman ISOFONT
( ) show grestore 23402 4224 M 0 13984 R D 23402 5623 M -335 0 R D
23402 8419 M -335 0 R D 23402 11216 M -335 0 R D 23402 14013 M -335 0 R D
23402 16810 M -335 0 R D 23402 4224 M -167 0 R D 23402 4923 M -167 0 R D
23402 6322 M -167 0 R D 23402 7021 M -167 0 R D 23402 7720 M -167 0 R D
23402 9119 M -167 0 R D 23402 9818 M -167 0 R D 23402 10517 M -167 0 R D
23402 11915 M -167 0 R D 23402 12615 M -167 0 R D 23402 13314 M -167 0 R D
23402 14712 M -167 0 R D 23402 15411 M -167 0 R D 23402 16111 M -167 0 R D
23402 17509 M -167 0 R D 23402 18208 M -167 0 R D
0.498 0.498 0.498 setrgbcolor 6660 10870 M 349 -120 R 349 30 R 349 -33 R
348 -114 R 349 -175 R 349 -92 R 349 -154 R 348 -75 R 349 -65 R 349 -16 R
349 -58 R 349 -121 R 348 -59 R 349 4 R 349 -29 R 349 -50 R 349 -73 R
348 -78 R 349 -117 R 349 -198 R 349 -118 R 349 -189 R 348 -107 R 349 -163 R
349 -187 R 349 -281 R 349 -169 R 348 -201 R 349 -143 R 349 -364 R 349 -291 R
348 -368 R 349 -209 R 349 -283 R 349 -333 R 349 -313 R 348 -163 R 349 -7 R
349 -136 R 349 -276 R 349 -424 R 348 -188 R 349 0 R 349 0 R 349 0 R 349 0 R
348 0 R 349 0 R 0 13441 R -349 -654 R -348 -305 R -349 33 R -349 105 R
-349 -7 R -349 12 R -348 -132 R -349 -318 R -349 -684 R -349 -421 R
-349 -252 R -348 -57 R -349 -82 R -349 -137 R -349 59 R -349 -111 R
-348 24 R -349 -74 R -349 -290 R -349 -287 R -348 -304 R -349 -77 R
-349 -232 R -349 -235 R -349 -166 R -348 -174 R -349 -112 R -349 -107 R
-349 -7 R -349 -108 R -348 -129 R -349 -134 R -349 -87 R -349 -131 R
-349 -95 R -348 -109 R -349 -15 R -349 -9 R -349 10 R -349 -8 R -348 0 R
-349 -7 R -349 7 R -349 -7 R -348 -18 R -349 -114 R -349 -90 R -349 -239 R F
0.894 0.894 0.894 setrgbcolor 6660 10957 M 349 -68 R 349 47 R 349 25 R
348 -66 R 349 -104 R 349 -141 R 349 -93 R 348 -65 R 349 -28 R 349 -60 R
349 -99 R 349 -94 R 348 -97 R 349 -58 R 349 -40 R 349 -59 R 349 -19 R
348 -41 R 349 -11 R 349 -5 R 349 -2 R 349 -85 R 348 -196 R 349 -176 R
349 -197 R 349 -169 R 349 -224 R 348 -196 R 349 -239 R 349 -280 R 349 -286 R
348 -313 R 349 -265 R 349 -114 R 349 -105 R 349 -195 R 348 -355 R 349 -37 R
349 51 R 349 157 R 349 -143 R 348 -171 R 349 -192 R 349 -264 R 349 -349 R
349 -487 R 348 -269 R 349 -76 R 0 11380 R -349 -30 R -348 -23 R -349 -111 R
-349 -55 R -349 -358 R -349 -489 R -348 -472 R -349 -300 R -349 -75 R
-349 92 R -349 -22 R -348 -90 R -349 -302 R -349 -88 R -349 -45 R -349 43 R
-348 -18 R -349 -106 R -349 -38 R -349 -131 R -348 -132 R -349 -226 R
-349 -287 R -349 -218 R -349 -167 R -348 19 R -349 11 R -349 -21 R
-349 -45 R -349 -104 R -348 -56 R -349 -39 R -349 -38 R -349 -71 R
-349 -108 R -348 -62 R -349 -49 R -349 10 R -349 -19 R -349 -10 R -348 -14 R
-349 -14 R -349 3 R -349 0 R -348 -3 R -349 -91 R -349 -68 R -349 -197 R F
0.000 0.000 0.000 setrgbcolor 6660 11203 M Z 7009 11290 M Z 7358 11358 M Z
7707 11429 M Z 8055 11385 M Z 8404 11363 M Z 8753 11360 M Z 9102 11360 M Z
9450 11323 M Z 9799 11302 M Z 10148 11268 M Z 10497 11293 M Z 10846 11300 M
Z 11194 11312 M Z 11543 11324 M Z 11892 11288 M Z 12241 11249 M Z
12590 11247 M Z 12938 11307 M Z 13287 11352 M Z 13636 11310 M Z
13985 11214 M Z 14334 11135 M Z 14682 11119 M Z 15031 11178 M Z
15380 11291 M Z 15729 11379 M Z 16078 11459 M Z 16426 11501 M Z
16775 11500 M Z 17124 11417 M Z 17473 11396 M Z 17821 11494 M Z
18170 11617 M Z 18519 11660 M Z 18868 11585 M Z 19217 11500 M Z
19565 11407 M Z 19914 11364 M Z 20263 11294 M Z 20612 11225 M Z
20961 11121 M Z 21309 11054 M Z 21658 10948 M Z 22007 10814 M Z
22356 10762 M Z 22705 10718 M Z 23053 10767 M Z 23402 10809 M Z 6660 11203 M
Z 7009 11290 M Z 7358 11358 M Z 7707 11429 M Z 8055 11385 M Z 8404 11363 M Z
8753 11360 M Z 9102 11360 M Z 9450 11323 M Z 9799 11302 M Z 10148 11268 M Z
10497 11293 M Z 10846 11300 M Z 11194 11312 M Z 11543 11324 M Z
11892 11288 M Z 12241 11249 M Z 12590 11247 M Z 12938 11307 M Z
13287 11352 M Z 13636 11310 M Z 13985 11214 M Z 14334 11135 M Z
14682 11119 M Z 15031 11178 M Z 15380 11291 M Z 15729 11379 M Z
16078 11459 M Z 16426 11501 M Z 16775 11500 M Z 17124 11417 M Z
17473 11396 M Z 17821 11494 M Z 18170 11617 M Z 18519 11660 M Z
18868 11585 M Z 19217 11500 M Z 19565 11407 M Z 19914 11364 M Z
20263 11294 M Z 20612 11225 M Z 20961 11121 M Z 21309 11054 M Z
21658 10948 M Z 22007 10814 M Z 22356 10762 M Z 22705 10718 M Z
23053 10767 M Z 23402 10809 M Z 6660 11161 M 0 84 R D 6660 11161 M 127 0 R D
6660 11245 M 127 0 R D 7009 11226 M 0 128 R D 6882 11226 M 254 0 R D
6882 11354 M 254 0 R D 7358 11296 M 0 124 R D 7231 11296 M 254 0 R D
7231 11420 M 254 0 R D 7707 11365 M 0 128 R D 7580 11365 M 254 0 R D
7580 11493 M 254 0 R D 8055 11335 M 0 99 R D 7928 11335 M 254 0 R D
7928 11434 M 254 0 R D 8404 11305 M 0 115 R D 8277 11305 M 254 0 R D
8277 11420 M 254 0 R D 8753 11275 M 0 171 R D 8626 11275 M 254 0 R D
8626 11446 M 254 0 R D 9102 11288 M 0 144 R D 8975 11288 M 254 0 R D
8975 11432 M 254 0 R D 9450 11252 M 0 142 R D 9323 11252 M 254 0 R D
9323 11394 M 254 0 R D 9799 11171 M 0 261 R D 9672 11171 M 254 0 R D
9672 11432 M 254 0 R D 10148 11150 M 0 235 R D 10021 11150 M 254 0 R D
10021 11385 M 254 0 R D 10497 11197 M 0 192 R D 10370 11197 M 254 0 R D
10370 11389 M 254 0 R D 10846 11175 M 0 249 R D 10719 11175 M 254 0 R D
10719 11424 M 254 0 R D 11194 11202 M 0 219 R D 11067 11202 M 254 0 R D
11067 11421 M 254 0 R D 11543 11223 M 0 202 R D 11416 11223 M 254 0 R D
11416 11425 M 254 0 R D 11892 11186 M 0 203 R D 11765 11186 M 254 0 R D
11765 11389 M 254 0 R D 12241 11099 M 0 300 R D 12114 11099 M 254 0 R D
12114 11399 M 254 0 R D 12590 11037 M 0 419 R D 12463 11037 M 254 0 R D
12463 11456 M 254 0 R D 12938 11104 M 0 405 R D 12811 11104 M 254 0 R D
12811 11509 M 254 0 R D 13287 11197 M 0 310 R D 13160 11197 M 254 0 R D
13160 11507 M 254 0 R D 13636 11153 M 0 314 R D 13509 11153 M 254 0 R D
13509 11467 M 254 0 R D 13985 11023 M 0 382 R D 13858 11023 M 254 0 R D
13858 11405 M 254 0 R D 14334 10972 M 0 327 R D 14207 10972 M 254 0 R D
14207 11299 M 254 0 R D 14682 10924 M 0 390 R D 14555 10924 M 254 0 R D
14555 11314 M 254 0 R D 15031 11045 M 0 266 R D 14904 11045 M 254 0 R D
14904 11311 M 254 0 R D 15380 11144 M 0 293 R D 15253 11144 M 254 0 R D
15253 11437 M 254 0 R D 15729 11211 M 0 335 R D 15602 11211 M 254 0 R D
15602 11546 M 254 0 R D 16078 11293 M 0 332 R D 15951 11293 M 254 0 R D
15951 11625 M 254 0 R D 16426 11304 M 0 394 R D 16299 11304 M 254 0 R D
16299 11698 M 254 0 R D 16775 11350 M 0 300 R D 16648 11350 M 254 0 R D
16648 11650 M 254 0 R D 17124 11166 M 0 502 R D 16997 11166 M 254 0 R D
16997 11668 M 254 0 R D 17473 10997 M 0 798 R D 17346 10997 M 254 0 R D
17346 11795 M 254 0 R D 17821 10922 M 0 1144 R D 17694 10922 M 254 0 R D
17694 12066 M 254 0 R D 18170 11241 M 0 752 R D 18043 11241 M 254 0 R D
18043 11993 M 254 0 R D 18519 11394 M 0 531 R D 18392 11394 M 254 0 R D
18392 11925 M 254 0 R D 18868 11222 M 0 726 R D 18741 11222 M 254 0 R D
18741 11948 M 254 0 R D 19217 11217 M 0 567 R D 19090 11217 M 254 0 R D
19090 11784 M 254 0 R D 19565 11158 M 0 497 R D 19438 11158 M 254 0 R D
19438 11655 M 254 0 R D 19914 11112 M 0 505 R D 19787 11112 M 254 0 R D
19787 11617 M 254 0 R D 20263 11038 M 0 512 R D 20136 11038 M 254 0 R D
20136 11550 M 254 0 R D 20612 10904 M 0 642 R D 20485 10904 M 254 0 R D
20485 11546 M 254 0 R D 20961 10792 M 0 658 R D 20834 10792 M 254 0 R D
20834 11450 M 254 0 R D 21309 10724 M 0 659 R D 21182 10724 M 254 0 R D
21182 11383 M 254 0 R D 21658 10640 M 0 616 R D 21531 10640 M 254 0 R D
21531 11256 M 254 0 R D 22007 10467 M 0 695 R D 21880 10467 M 254 0 R D
21880 11162 M 254 0 R D 22356 10254 M 0 1016 R D 22229 10254 M 254 0 R D
22229 11270 M 254 0 R D 22705 10071 M 0 1295 R D 22578 10071 M 254 0 R D
22578 11366 M 254 0 R D 23053 9999 M 0 1536 R D 22926 9999 M 254 0 R D
22926 11535 M 254 0 R D 23402 10022 M 0 1573 R D 23275 10022 M 127 0 R D
23275 11595 M 127 0 R D 20 setlinewidth L1 6660 11216 M 16742 0 R D
50 setlinewidth 13233 4224 M 0 13984 R D
%%PageTrailer
end
restore
showpage
%%PageResources: font Symbol
%%+ font Times-Roman
%%Trailer
restore
%%Pages: 1
%%DocumentNeededResources: font Symbol
%%+ font Times-Roman
%%EOF
